Place,Name,Sex,Age,Country,State,Equipment,Division,BodyweightKg,WeightClassKg,Squat1Kg,Squat2Kg,Squat3Kg,Squat4Kg,Best3SquatKg,Bench1Kg,Bench2Kg,Bench3Kg,Bench4Kg,Best3BenchKg,Deadlift1Kg,Deadlift2Kg,Deadlift3Kg,Deadlift4Kg,Best3DeadliftKg,TotalKg,Event,Team,BirthDate
1,Lauren Barlow,F,41,Australia,NSW,Raw,F-M1R,84.6,90,70,75,80,,80,40,47.5,50,,50,100,107.5,112.5,,112.5,242.5,SBD,Nemesis,
1,Heather Ostler,F,46,Australia,NSW,Raw,F-M2R,104.5,110,55,65,75,,75,55,-65,-65,,55,100,110,120,,120,250,SBD,Nemesis,
1,Sue Harrod,F,64,Australia,NSW,Raw,F-M5R,115.1,110+,85,90,95,100,95,50,52.5,-55,-57.5,52.5,107.5,115,120,125,120,267.5,SBD,,
1,Steph Spittles,F,27,,,Raw,F-OR,115.1,110+,127.5,-135,142.5,,142.5,55,60,-65,,60,150,160,170,,170,372.5,SBD,,
1,Mildred Jackson,F,13,Australia,NSW,Raw,F-T1R,65.7,67.5,67.5,72.5,77.5,,77.5,40,45,-47.5,,45,95,100,105,,105,227.5,SBD,Nemesis,
1,Neve Tratt,F,19,Australia,,Raw,F-T3R,91.8,110,-75,80,85,,85,47.5,52.5,55,,55,97.5,102.5,107.5,,107.5,247.5,SBD,,
1,Sienna Tomkins,F,20,Australia,,Raw,F-JR,88.6,90,92.5,102.5,110,,110,47.5,52.5,-57.5,,52.5,100,112.5,-120,,112.5,275,SBD,,
1,Michelle Del Guzzo,F,42,Australia,NSW,Wraps,F-M1R,74.1,75,165,180,190,,190,75,80,82.5,,82.5,167.5,177.5,180,,180,452.5,SBD,Nemesis,
1,Pat Widdup,F,49,Australia,,Raw,F-M2R,55.2,56,142.5,-155,155,,155,67.5,72.5,-75,,72.5,142.5,152.5,-157.5,,152.5,380,SBD,,
1,Katherine Wright,F,45,Australia,,Wraps,F-M2R,75,75,175,185,192,,192,85,92.5,-97.5,,92.5,165,-175,-175,,165,449.5,SBD,,
1,Linda Devonshire,F,49,Australia,,Raw,F-M2R,79.6,82.5,175,185,-188,,185,85,-90,-90,,85,180,185,-190,,185,455,SBD,,
1,Alex Atkinson,F,55,Australia,,Raw,F-M4R,53.6,56,70,75,80,,80,42.5,45,-47.5,,45,105,112.5,120,,120,245,SBD,,
2,Trudy Mcmillan,F,59,Australia,,Raw,F-M4R,54.1,56,85,87.5,92.5,,92.5,45,47.5,-50,,47.5,100,102.5,105,,105,245,SBD,,
1,Wendy Hamilton,F,64,Australia,,Raw,F-M5R,65.3,67.5,65,72.5,77.5,,77.5,45,47.5,50,,50,-115,115,127.5,135,127.5,255,SBD,,
1,Xanthe Atkinson,F,17,Australia,,Raw,F-T2R,55.2,56,90,-97.5,-97.5,,90,52.5,57.5,-60,,57.5,90,100,107.5,,107.5,255,SBD,,
1,Amanda Vanbruchem,F,32,Australia,NSW,Multi-ply,F-OE,70.6,75,115,130,140,,140,75,85,-90,,85,120,132.5,140,,140,365,SBD,Nemesis,
1,Holly Hoad,F,33,Australia,NSW,Single-ply,F-OE,113.7,110+,110,120,130,,130,75,85,92.5,-100,92.5,130,145,155,,155,377.5,SBD,Nemesis,
1,Sinead Houston,F,40,Australia,QLD,Raw,F-M1R,117,110+,135,142.5,150,,150,,,,,,,,,,,150,S,,
1,Katherine Wright,F,45,Australia,,Wraps,F-M2R,75,75,160,,,,160,,,,,,,,,,,160,S,,
1,Arabella Watson,F,21,Australia,NSW,Multi-ply,F-JE,77.5,82.5,130,,,,130,,,,,,,,,,,130,S,Nemesis,
1,Joe Barnes,M,22,Australia,,Raw,M-JR,86.1,90,70,75,80,,80,65,75,80,,80,90,105,115,,115,275,SBD,,
1,Jayden Bartlett,M,21,Australia,NSW,Wraps,M-JR,72.9,75,262.5,275,292.5,,292.5,157.5,165.5,-167.5,,165.5,220,240,-245,,240,698,SBD,Hunter Strength,
1,Brett Woodford,M,40,Australia,NSW,Wraps,M-M1R,73.3,75,150,167.5,-172.5,,167.5,85,-90,-90,,85,210,230,-235,,230,482.5,SBD,,
1,Richard Hansen,M,42,Australia,,Wraps,M-M1R,89.7,90,230,245,250,,250,157.5,162.5,-167.5,,162.5,247.5,255,-262.5,,255,667.5,SBD,,
1,Brian Marchant,M,45,Australia,NSW,Wraps,M-M2R,95.5,100,245,-260,-260,,245,145,-152.5,-152.5,,145,240,260,272.5,,272.5,662.5,SBD,Nemesis,
1,Mark Whelan,M,48,Australia,,Wraps,M-M2R,109.3,110,250,270,275,,275,140,155,162.5,,162.5,260,280,-295,,280,717.5,SBD,,
1,Anthony Davis #1,M,53,Australia,,Wraps,M-M3R,119.4,125,250,270,280,,280,-150,150,155,,155,270,285,295,,295,730,SBD,,
1,Leigh Wisby,M,59,Australia,VIC,Wraps,M-M4R,134,140,230,250,-280,,250,85,,,,85,265,,,,265,600,SBD,,
1,Lex Anderson,M,65,Australia,,Wraps,M-M6R,65.3,67.5,112.5,117.5,122.5,,122.5,90,95,-100,,95,177.5,185,192.5,,192.5,410,SBD,,
1,Jim Collins,M,76,Australia,,Raw,M-M8R,83.8,90,110,120,125,,125,70,75,80,,80,160,170,-180,,170,375,SBD,,
1,James Perry #2,M,28,Australia,NSW,Wraps,M-OR,124.1,125,340,-360,370,,370,190,210,220,,220,270,290,305,,305,895,SBD,Nemesis,
1,Benjamin Mastronardi,M,33,Australia,NSW,Wraps,M-OR,182.3,140+,225,-250,260,,260,140,150,-160,,150,200,220,240,,240,650,SBD,Nemesis,
1,Zac Wheeldon,M,14,Australia,NSW,Wraps,M-T1R,71.6,75,-160,-170,170,,170,-80,-80,80,,80,165,180,185,,185,435,SBD,,
1,Cooper Hinton,M,14,Australia,NSW,Raw,M-T1R,76.8,82.5,80,90,100,,100,50,55,60,,60,100,110,122.5,,122.5,282.5,SBD,Lifted,
1,Wilson Zhao,M,17,Australia,,Wraps,M-T2R,73.2,75,145,155,-165,,155,102.5,107.5,112.5,,112.5,160,,,,160,427.5,SBD,,
1,Shoorjo Das Gupta,M,17,Australia,,Wraps,M-T2R,89.9,90,162.5,185,-195,,185,125,130,-137.5,,130,210,225,235,,235,550,SBD,,
1,Nick Heferen,M,17,Australia,,Wraps,M-T2R,108.1,110,200,215,230,,230,145,152.5,160,,160,200,220,240,,240,630,SBD,,
1,Reuben Spires,M,17,Australia,,Wraps,M-T2R,112.1,125,250,-265,265,,265,120,130,140,,140,255,270,-280,,270,675,SBD,,
1,Arabella Watson,F,21,Australia,NSW,Multi-ply,F-JE,77.5,82.5,145,-150,150,,150,75,77.5,80,,80,120,130,-140,,130,360,SBD,Nemesis,
1,Rob Allen #1,M,40,Australia,NSW,Multi-ply,M-M1E,129.4,140,290,-315,315,,315,-170,170,182.5,-190,182.5,230,-240,240,,240,737.5,SBD,,
1,Remus Watson,M,24,Australia,NSW,Multi-ply,M-OE,82.3,82.5,290,-310,-310,,290,-150,-150,150,,150,220,-240,-240,,220,660,SBD,Nemesis,
1,David Tran-Cong,M,34,Australia,VIC,Multi-ply,M-OE,94,100,285,305,320,,320,200,210,-220,,210,260,272.5,285,,285,815,SBD,,
1,Brad Lloyd-Jones,M,26,Australia,NSW,Multi-ply,M-OE,107.3,110,275,290,300,,300,-230,-230,230,,230,270,285,-292.5,,285,815,SBD,,
2,Brodie Vandermeer,M,26,Australia,NSW,Multi-ply,M-OE,108.3,110,-270,270,-290,,270,215,-230,230,,230,185,200,-207.5,,200,700,SBD,Nemesis,
1,Dylan McDonald #1,M,,Australia,NSW,Multi-ply,M-OE,122.8,125,340,367.5,,,367.5,190,210,220,,220,300,320,332.5,,332.5,920,SBD,Lifted,
2,Michael Bewley,M,26,Australia,NSW,Multi-ply,M-OE,118.2,125,-270,270,300,,300,180,-200,-200,,180,227.5,242.5,260,,260,740,SBD,Nemesis,
DQ,Remus Watson,M,24,Australia,NSW,Multi-ply,M-OE,82.3,82.5,-250,-275,-290,,,,,,,,,,,,,,S,Nemesis,
1,Rob Allen #1,M,40,Australia,NSW,Multi-ply,M-M1E,129.4,140,275,,,,275,,,,,,,,,,,275,S,,
1,Dylan McDonald #1,M,,Australia,NSW,Multi-ply,M-OE,122.8,125,300,330,361,,361,,,,,,,,,,,361,S,Lifted,
1,Jason Callan,M,41,Australia,,Multi-ply,M-M1E,129,140,,,,,,-157.5,167.5,-175,,167.5,,,,,,167.5,B,,
1,Jonathon George,M,33,Australia,NSW,Single-ply,M-OE,66.9,67.5,,,,,,190.5,195,-202,-202,195,,,,,,195,B,,
1,Damian Adamson,M,42,Australia,,Raw,M-M1R,71,75,,,,,,,,,,,252.5,257.5,263,,263,263,D,,
1,Leigh Wisby,M,59,Australia,VIC,Raw,M-M4R,134,140,,,,,,,,,,,260,280,290,,290,290,D,,
